{
    "lighthub": [
        {
            "area_id": 102,
            "db_id": 1608,
            "area_name": "F1.ATRIUM.ZONE1.JSON",
            "hex": "6DB5",
            "mac": "DC:B9:1C:DB:80:39",
            "dec": 28085,
            "id": 0
        },
        {
            "area_id": 102,
            "db_id": 1351,
            "area_name": "F1.ATRIUM.ZONE1.JSON",
            "hex": "75BD",
            "mac": "E8:A0:94:6B:9D:CC",
            "dec": 30141,
            "id": 1
        },
        {
            "area_id": 102,
            "db_id": 1587,
            "area_name": "F1.ATRIUM.ZONE1.JSON",
            "hex": "6E5D",
            "mac": "F0:CD:A6:84:9A:6C",
            "dec": 28253,
            "id": 2
        },
        {
            "area_id": 103,
            "db_id": 1474,
            "area_name": "F1.ATRIUM.ZONE2.JSON",
            "hex": "71E5",
            "mac": "F0:54:0E:5A:43:02",
            "dec": 29157,
            "id": 3
        },
        {
            "area_id": 104,
            "db_id": 1423,
            "area_name": "F1.ATRIUM.ZONE3.JSON",
            "hex": "737D",
            "mac": "CE:06:B3:2A:3E:75",
            "dec": 29565,
            "id": 4
        },
        {
            "area_id": 104,
            "db_id": 1501,
            "area_name": "F1.ATRIUM.ZONE3.JSON",
            "hex": "710D",
            "mac": "CE:BA:DD:3B:BD:B8",
            "dec": 28941,
            "id": 5
        },
        {
            "area_id": 104,
            "db_id": 1322,
            "area_name": "F1.ATRIUM.ZONE3.JSON",
            "hex": "76A5",
            "mac": "D2:DA:C6:14:8C:73",
            "dec": 30373,
            "id": 6
        },
        {
            "area_id": 104,
            "db_id": 1372,
            "area_name": "F1.ATRIUM.ZONE3.JSON",
            "hex": "7515",
            "mac": "DC:23:9E:22:07:22",
            "dec": 29973,
            "id": 7
        },
        {
            "area_id": 104,
            "db_id": 1650,
            "area_name": "F1.ATRIUM.ZONE3.JSON",
            "hex": "6C65",
            "mac": "E6:27:F9:0F:78:98",
            "dec": 27749,
            "id": 8
        },
        {
            "area_id": 104,
            "db_id": 1519,
            "area_name": "F1.ATRIUM.ZONE3.JSON",
            "hex": "707D",
            "mac": "E7:E4:93:EC:12:3D",
            "dec": 28797,
            "id": 9
        },
        {
            "area_id": 104,
            "db_id": 1296,
            "area_name": "F1.ATRIUM.ZONE3.JSON",
            "hex": "7775",
            "mac": "F2:29:2A:C3:9F:19",
            "dec": 30581,
            "id": 10
        },
        {
            "area_id": 104,
            "db_id": 1289,
            "area_name": "F1.ATRIUM.ZONE3.JSON",
            "hex": "77AD",
            "mac": "F8:1C:9F:DD:8E:CC",
            "dec": 30637,
            "id": 11
        },
        {
            "area_id": 104,
            "db_id": 1189,
            "area_name": "F1.ATRIUM.ZONE3.JSON",
            "hex": "7ACD",
            "mac": "FC:42:1C:F8:6A:C9",
            "dec": 31437,
            "id": 12
        },
        {
            "area_id": 32,
            "db_id": 1539,
            "area_name": "F1.FUNCTIONAL.JSON",
            "hex": "6FDD",
            "mac": "F9:86:C1:9F:2F:BB",
            "dec": 28637,
            "id": 13
        },
        {
            "area_id": 117,
            "db_id": 1320,
            "area_name": "F1.GREEN.ZONE1.JSON",
            "hex": "76B5",
            "mac": "C2:5F:C8:95:D7:57",
            "dec": 30389,
            "id": 14
        },
        {
            "area_id": 117,
            "db_id": 1507,
            "area_name": "F1.GREEN.ZONE1.JSON",
            "hex": "70DD",
            "mac": "C3:3A:13:93:68:73",
            "dec": 28893,
            "id": 15
        },
        {
            "area_id": 117,
            "db_id": 1549,
            "area_name": "F1.GREEN.ZONE1.JSON",
            "hex": "6F8D",
            "mac": "C5:83:3A:D3:A9:B9",
            "dec": 28557,
            "id": 16
        },
        {
            "area_id": 117,
            "db_id": 1194,
            "area_name": "F1.GREEN.ZONE1.JSON",
            "hex": "7AA5",
            "mac": "C5:E5:12:1C:1F:9D",
            "dec": 31397,
            "id": 17
        },
        {
            "area_id": 117,
            "db_id": 1248,
            "area_name": "F1.GREEN.ZONE1.JSON",
            "hex": "78F5",
            "mac": "CA:23:A0:1E:0B:D6",
            "dec": 30965,
            "id": 18
        },
        {
            "area_id": 117,
            "db_id": 1251,
            "area_name": "F1.GREEN.ZONE1.JSON",
            "hex": "78DD",
            "mac": "CE:11:6C:FD:48:8D",
            "dec": 30941,
            "id": 19
        },
        {
            "area_id": 117,
            "db_id": 1581,
            "area_name": "F1.GREEN.ZONE1.JSON",
            "hex": "6E8D",
            "mac": "D0:D9:52:72:7C:31",
            "dec": 28301,
            "id": 20
        },
        {
            "area_id": 117,
            "db_id": 1287,
            "area_name": "F1.GREEN.ZONE1.JSON",
            "hex": "77BD",
            "mac": "D3:32:82:E9:19:70",
            "dec": 30653,
            "id": 21
        },
        {
            "area_id": 117,
            "db_id": 1497,
            "area_name": "F1.GREEN.ZONE1.JSON",
            "hex": "712D",
            "mac": "D5:15:F0:4C:6A:98",
            "dec": 28973,
            "id": 22
        },
        {
            "area_id": 117,
            "db_id": 1260,
            "area_name": "F1.GREEN.ZONE1.JSON",
            "hex": "7895",
            "mac": "E1:E3:27:17:55:6A",
            "dec": 30869,
            "id": 23
        },
        {
            "area_id": 117,
            "db_id": 1674,
            "area_name": "F1.GREEN.ZONE1.JSON",
            "hex": "6BA5",
            "mac": "E3:84:0A:0C:95:86",
            "dec": 27557,
            "id": 24
        },
        {
            "area_id": 117,
            "db_id": 1386,
            "area_name": "F1.GREEN.ZONE1.JSON",
            "hex": "74A5",
            "mac": "E6:AD:EB:90:49:FE",
            "dec": 29861,
            "id": 25
        },
        {
            "area_id": 117,
            "db_id": 1531,
            "area_name": "F1.GREEN.ZONE1.JSON",
            "hex": "701D",
            "mac": "F2:0B:9F:40:DB:11",
            "dec": 28701,
            "id": 26
        },
        {
            "area_id": 117,
            "db_id": 1625,
            "area_name": "F1.GREEN.ZONE1.JSON",
            "hex": "6D2D",
            "mac": "FA:48:2C:0D:A7:33",
            "dec": 27949,
            "id": 27
        },
        {
            "area_id": 118,
            "db_id": 1620,
            "area_name": "F1.GREEN.ZONE2.JSON",
            "hex": "6D55",
            "mac": "C4:45:19:DD:0E:4A",
            "dec": 27989,
            "id": 28
        },
        {
            "area_id": 118,
            "db_id": 1396,
            "area_name": "F1.GREEN.ZONE2.JSON",
            "hex": "7455",
            "mac": "C8:18:56:EE:2E:91",
            "dec": 29781,
            "id": 29
        },
        {
            "area_id": 118,
            "db_id": 1598,
            "area_name": "F1.GREEN.ZONE2.JSON",
            "hex": "6E05",
            "mac": "C9:3D:E3:E1:B9:60",
            "dec": 28165,
            "id": 30
        },
        {
            "area_id": 118,
            "db_id": 1550,
            "area_name": "F1.GREEN.ZONE2.JSON",
            "hex": "6F85",
            "mac": "C9:4C:FE:FA:16:74",
            "dec": 28549,
            "id": 31
        },
        {
            "area_id": 118,
            "db_id": 1622,
            "area_name": "F1.GREEN.ZONE2.JSON",
            "hex": "6D45",
            "mac": "D1:49:97:0D:C4:01",
            "dec": 27973,
            "id": 32
        },
        {
            "area_id": 118,
            "db_id": 1661,
            "area_name": "F1.GREEN.ZONE2.JSON",
            "hex": "6C0D",
            "mac": "D1:4B:48:B0:82:5C",
            "dec": 27661,
            "id": 33
        },
        {
            "area_id": 118,
            "db_id": 1324,
            "area_name": "F1.GREEN.ZONE2.JSON",
            "hex": "7695",
            "mac": "D1:76:65:2D:F2:5D",
            "dec": 30357,
            "id": 34
        },
        {
            "area_id": 118,
            "db_id": 1530,
            "area_name": "F1.GREEN.ZONE2.JSON",
            "hex": "7025",
            "mac": "D2:D9:31:27:AE:45",
            "dec": 28709,
            "id": 35
        },
        {
            "area_id": 118,
            "db_id": 1335,
            "area_name": "F1.GREEN.ZONE2.JSON",
            "hex": "763D",
            "mac": "D3:32:26:BB:1B:0E",
            "dec": 30269,
            "id": 36
        },
        {
            "area_id": 118,
            "db_id": 1421,
            "area_name": "F1.GREEN.ZONE2.JSON",
            "hex": "738D",
            "mac": "D4:0D:05:69:F8:0B",
            "dec": 29581,
            "id": 37
        },
        {
            "area_id": 118,
            "db_id": 1242,
            "area_name": "F1.GREEN.ZONE2.JSON",
            "hex": "7925",
            "mac": "DA:CE:3F:1C:B3:DF",
            "dec": 31013,
            "id": 38
        },
        {
            "area_id": 118,
            "db_id": 1347,
            "area_name": "F1.GREEN.ZONE2.JSON",
            "hex": "75DD",
            "mac": "E2:D0:38:2E:2B:71",
            "dec": 30173,
            "id": 39
        },
        {
            "area_id": 118,
            "db_id": 1273,
            "area_name": "F1.GREEN.ZONE2.JSON",
            "hex": "782D",
            "mac": "E9:D5:B2:E9:8C:84",
            "dec": 30765,
            "id": 40
        },
        {
            "area_id": 119,
            "db_id": 1647,
            "area_name": "F1.GREEN.ZONE3.JSON",
            "hex": "6C7D",
            "mac": "C9:D0:07:D4:75:DD",
            "dec": 27773,
            "id": 41
        },
        {
            "area_id": 119,
            "db_id": 1435,
            "area_name": "F1.GREEN.ZONE3.JSON",
            "hex": "731D",
            "mac": "D0:A5:15:05:E5:46",
            "dec": 29469,
            "id": 42
        },
        {
            "area_id": 119,
            "db_id": 1268,
            "area_name": "F1.GREEN.ZONE3.JSON",
            "hex": "7855",
            "mac": "D3:C8:B0:9E:C2:6F",
            "dec": 30805,
            "id": 43
        },
        {
            "area_id": 119,
            "db_id": 1348,
            "area_name": "F1.GREEN.ZONE3.JSON",
            "hex": "75D5",
            "mac": "E7:9C:07:C2:91:9B",
            "dec": 30165,
            "id": 44
        },
        {
            "area_id": 119,
            "db_id": 1603,
            "area_name": "F1.GREEN.ZONE3.JSON",
            "hex": "6DDD",
            "mac": "EE:CB:31:F8:32:B7",
            "dec": 28125,
            "id": 45
        },
        {
            "area_id": 107,
            "db_id": 1228,
            "area_name": "F1.MAINLOBBY.ZONE1.JSON",
            "hex": "7995",
            "mac": "C5:2B:15:CB:64:11",
            "dec": 31125,
            "id": 46
        },
        {
            "area_id": 107,
            "db_id": 1610,
            "area_name": "F1.MAINLOBBY.ZONE1.JSON",
            "hex": "6DA5",
            "mac": "DA:B2:71:27:25:39",
            "dec": 28069,
            "id": 47
        },
        {
            "area_id": 112,
            "db_id": 1473,
            "area_name": "F1.ORANGE.ZONE1.JSON",
            "hex": "71ED",
            "mac": "CB:A8:5D:4E:BC:C8",
            "dec": 29165,
            "id": 48
        },
        {
            "area_id": 112,
            "db_id": 1453,
            "area_name": "F1.ORANGE.ZONE1.JSON",
            "hex": "728D",
            "mac": "CD:41:52:CA:6E:65",
            "dec": 29325,
            "id": 49
        },
        {
            "area_id": 112,
            "db_id": 1414,
            "area_name": "F1.ORANGE.ZONE1.JSON",
            "hex": "73C5",
            "mac": "D3:D7:33:33:95:6D",
            "dec": 29637,
            "id": 50
        },
        {
            "area_id": 112,
            "db_id": 1659,
            "area_name": "F1.ORANGE.ZONE1.JSON",
            "hex": "6C1D",
            "mac": "E0:AA:A3:79:50:B1",
            "dec": 27677,
            "id": 51
        },
        {
            "area_id": 112,
            "db_id": 1529,
            "area_name": "F1.ORANGE.ZONE1.JSON",
            "hex": "702D",
            "mac": "E8:81:7F:ED:7B:F4",
            "dec": 28717,
            "id": 52
        },
        {
            "area_id": 112,
            "db_id": 1460,
            "area_name": "F1.ORANGE.ZONE1.JSON",
            "hex": "7255",
            "mac": "F5:CE:A3:28:CA:2D",
            "dec": 29269,
            "id": 53
        },
        {
            "area_id": 112,
            "db_id": 1288,
            "area_name": "F1.ORANGE.ZONE1.JSON",
            "hex": "77B5",
            "mac": "F7:6A:FD:1F:E4:3A",
            "dec": 30645,
            "id": 54
        },
        {
            "area_id": 113,
            "db_id": 1425,
            "area_name": "F1.ORANGE.ZONE2.JSON",
            "hex": "736D",
            "mac": "CB:25:7D:C2:0E:9C",
            "dec": 29549,
            "id": 55
        },
        {
            "area_id": 113,
            "db_id": 1646,
            "area_name": "F1.ORANGE.ZONE2.JSON",
            "hex": "6C85",
            "mac": "CC:3E:83:5C:0F:7F",
            "dec": 27781,
            "id": 56
        },
        {
            "area_id": 113,
            "db_id": 1588,
            "area_name": "F1.ORANGE.ZONE2.JSON",
            "hex": "6E55",
            "mac": "D6:72:2E:AA:E0:31",
            "dec": 28245,
            "id": 57
        },
        {
            "area_id": 113,
            "db_id": 1387,
            "area_name": "F1.ORANGE.ZONE2.JSON",
            "hex": "749D",
            "mac": "D7:77:05:EF:E0:B9",
            "dec": 29853,
            "id": 58
        },
        {
            "area_id": 113,
            "db_id": 1352,
            "area_name": "F1.ORANGE.ZONE2.JSON",
            "hex": "75B5",
            "mac": "E4:B5:B9:F4:EE:EF",
            "dec": 30133,
            "id": 59
        },
        {
            "area_id": 114,
            "db_id": 1233,
            "area_name": "F1.ORANGE.ZONE3.JSON",
            "hex": "796D",
            "mac": "C2:C2:2F:8D:76:EF",
            "dec": 31085,
            "id": 60
        },
        {
            "area_id": 114,
            "db_id": 1651,
            "area_name": "F1.ORANGE.ZONE3.JSON",
            "hex": "6C5D",
            "mac": "C6:BD:B1:EC:B1:DF",
            "dec": 27741,
            "id": 61
        },
        {
            "area_id": 114,
            "db_id": 1205,
            "area_name": "F1.ORANGE.ZONE3.JSON",
            "hex": "7A4D",
            "mac": "E0:3B:D6:03:91:F0",
            "dec": 31309,
            "id": 62
        },
        {
            "area_id": 114,
            "db_id": 1427,
            "area_name": "F1.ORANGE.ZONE3.JSON",
            "hex": "735D",
            "mac": "F9:AD:E2:9E:08:44",
            "dec": 29533,
            "id": 63
        },
        {
            "area_id": 114,
            "db_id": 1375,
            "area_name": "F1.ORANGE.ZONE3.JSON",
            "hex": "74FD",
            "mac": "FF:E1:47:08:35:F0",
            "dec": 29949,
            "id": 64
        },
        {
            "area_id": 115,
            "db_id": 1319,
            "area_name": "F1.ORANGE.ZONE4.JSON",
            "hex": "76BD",
            "mac": "C0:3D:5B:F2:28:A1",
            "dec": 30397,
            "id": 65
        },
        {
            "area_id": 115,
            "db_id": 1266,
            "area_name": "F1.ORANGE.ZONE4.JSON",
            "hex": "7865",
            "mac": "C5:E9:7A:AA:AE:01",
            "dec": 30821,
            "id": 66
        },
        {
            "area_id": 115,
            "db_id": 1502,
            "area_name": "F1.ORANGE.ZONE4.JSON",
            "hex": "7105",
            "mac": "D6:E2:3B:FC:F7:26",
            "dec": 28933,
            "id": 67
        },
        {
            "area_id": 115,
            "db_id": 1359,
            "area_name": "F1.ORANGE.ZONE4.JSON",
            "hex": "757D",
            "mac": "E1:0D:C3:33:1E:3F",
            "dec": 30077,
            "id": 68
        },
        {
            "area_id": 115,
            "db_id": 1666,
            "area_name": "F1.ORANGE.ZONE4.JSON",
            "hex": "6BE5",
            "mac": "EB:83:A2:16:B0:4E",
            "dec": 27621,
            "id": 69
        },
        {
            "area_id": 115,
            "db_id": 1442,
            "area_name": "F1.ORANGE.ZONE4.JSON",
            "hex": "72E5",
            "mac": "F1:63:CE:71:59:88",
            "dec": 29413,
            "id": 70
        },
        {
            "area_id": 92,
            "db_id": 1623,
            "area_name": "F1.YELLOW.ZONE1.JSON",
            "hex": "6D3D",
            "mac": "CB:33:94:16:F8:09",
            "dec": 27965,
            "id": 71
        },
        {
            "area_id": 92,
            "db_id": 1499,
            "area_name": "F1.YELLOW.ZONE1.JSON",
            "hex": "711D",
            "mac": "CC:F9:A8:E7:09:5B",
            "dec": 28957,
            "id": 72
        },
        {
            "area_id": 92,
            "db_id": 1591,
            "area_name": "F1.YELLOW.ZONE1.JSON",
            "hex": "6E3D",
            "mac": "D3:D8:47:1B:BE:9C",
            "dec": 28221,
            "id": 73
        },
        {
            "area_id": 92,
            "db_id": 1306,
            "area_name": "F1.YELLOW.ZONE1.JSON",
            "hex": "7725",
            "mac": "DA:86:FE:60:36:61",
            "dec": 30501,
            "id": 74
        },
        {
            "area_id": 92,
            "db_id": 1340,
            "area_name": "F1.YELLOW.ZONE1.JSON",
            "hex": "7615",
            "mac": "E2:35:43:81:47:22",
            "dec": 30229,
            "id": 75
        },
        {
            "area_id": 92,
            "db_id": 1403,
            "area_name": "F1.YELLOW.ZONE1.JSON",
            "hex": "741D",
            "mac": "EB:DD:7E:78:20:47",
            "dec": 29725,
            "id": 76
        },
        {
            "area_id": 93,
            "db_id": 1536,
            "area_name": "F1.YELLOW.ZONE2.JSON",
            "hex": "6FF5",
            "mac": "D3:15:47:0B:1B:E6",
            "dec": 28661,
            "id": 77
        },
        {
            "area_id": 93,
            "db_id": 1488,
            "area_name": "F1.YELLOW.ZONE2.JSON",
            "hex": "7175",
            "mac": "D7:80:2F:28:88:7C",
            "dec": 29045,
            "id": 78
        },
        {
            "area_id": 93,
            "db_id": 1338,
            "area_name": "F1.YELLOW.ZONE2.JSON",
            "hex": "7625",
            "mac": "D9:53:3C:C0:D0:F4",
            "dec": 30245,
            "id": 79
        },
        {
            "area_id": 93,
            "db_id": 1475,
            "area_name": "F1.YELLOW.ZONE2.JSON",
            "hex": "71DD",
            "mac": "DA:83:96:21:69:96",
            "dec": 29149,
            "id": 80
        },
        {
            "area_id": 93,
            "db_id": 1463,
            "area_name": "F1.YELLOW.ZONE2.JSON",
            "hex": "723D",
            "mac": "DA:E2:DB:7B:F3:03",
            "dec": 29245,
            "id": 81
        },
        {
            "area_id": 93,
            "db_id": 1560,
            "area_name": "F1.YELLOW.ZONE2.JSON",
            "hex": "6F35",
            "mac": "DC:07:1F:B6:96:8B",
            "dec": 28469,
            "id": 82
        },
        {
            "area_id": 93,
            "db_id": 1573,
            "area_name": "F1.YELLOW.ZONE2.JSON",
            "hex": "6ECD",
            "mac": "E2:09:B6:AE:5B:0E",
            "dec": 28365,
            "id": 83
        },
        {
            "area_id": 93,
            "db_id": 1185,
            "area_name": "F1.YELLOW.ZONE2.JSON",
            "hex": "7AED",
            "mac": "E5:D3:3C:6F:8F:29",
            "dec": 31469,
            "id": 84
        },
        {
            "area_id": 93,
            "db_id": 1381,
            "area_name": "F1.YELLOW.ZONE2.JSON",
            "hex": "74CD",
            "mac": "E9:28:6E:86:95:93",
            "dec": 29901,
            "id": 85
        },
        {
            "area_id": 93,
            "db_id": 1639,
            "area_name": "F1.YELLOW.ZONE2.JSON",
            "hex": "6CBD",
            "mac": "ED:E1:22:A9:EE:33",
            "dec": 27837,
            "id": 86
        },
        {
            "area_id": 94,
            "db_id": 1209,
            "area_name": "F1.YELLOW.ZONE3.JSON",
            "hex": "7A2D",
            "mac": "E8:AE:D5:12:C8:60",
            "dec": 31277,
            "id": 87
        },
        {
            "area_id": 95,
            "db_id": 1658,
            "area_name": "F1.YELLOW.ZONE4.JSON",
            "hex": "6C25",
            "mac": "CE:A2:D8:D8:BD:13",
            "dec": 27685,
            "id": 88
        },
        {
            "area_id": 95,
            "db_id": 1379,
            "area_name": "F1.YELLOW.ZONE4.JSON",
            "hex": "74DD",
            "mac": "D9:36:EF:4B:52:2C",
            "dec": 29917,
            "id": 89
        },
        {
            "area_id": 95,
            "db_id": 1231,
            "area_name": "F1.YELLOW.ZONE4.JSON",
            "hex": "797D",
            "mac": "EE:86:BC:48:A5:DC",
            "dec": 31101,
            "id": 90
        },
        {
            "area_id": 95,
            "db_id": 1446,
            "area_name": "F1.YELLOW.ZONE4.JSON",
            "hex": "72C5",
            "mac": "F0:3B:42:45:14:C4",
            "dec": 29381,
            "id": 91
        },
        {
            "area_id": 96,
            "db_id": 1450,
            "area_name": "F1.YELLOW.ZONE5.JSON",
            "hex": "72A5",
            "mac": "C8:7D:3D:C5:A4:D1",
            "dec": 29349,
            "id": 92
        },
        {
            "area_id": 96,
            "db_id": 1341,
            "area_name": "F1.YELLOW.ZONE5.JSON",
            "hex": "760D",
            "mac": "D8:75:61:C0:8A:4F",
            "dec": 30221,
            "id": 93
        },
        {
            "area_id": 96,
            "db_id": 1398,
            "area_name": "F1.YELLOW.ZONE5.JSON",
            "hex": "7445",
            "mac": "DD:BF:8B:45:AF:DD",
            "dec": 29765,
            "id": 94
        },
        {
            "area_id": 96,
            "db_id": 1462,
            "area_name": "F1.YELLOW.ZONE5.JSON",
            "hex": "7245",
            "mac": "E2:E4:31:E9:3F:DF",
            "dec": 29253,
            "id": 95
        },
        {
            "area_id": 96,
            "db_id": 1545,
            "area_name": "F1.YELLOW.ZONE5.JSON",
            "hex": "6FAD",
            "mac": "F4:1A:74:9F:13:58",
            "dec": 28589,
            "id": 96
        },
        {
            "area_id": 96,
            "db_id": 1589,
            "area_name": "F1.YELLOW.ZONE5.JSON",
            "hex": "6E4D",
            "mac": "FB:22:CC:D0:AF:47",
            "dec": 28237,
            "id": 97
        },
        {
            "area_id": 142,
            "db_id": 1291,
            "area_name": "F2.ATRIUM.ZONE1.JSON",
            "hex": "779D",
            "mac": "CA:2A:7C:7F:56:23",
            "dec": 30621,
            "id": 98
        },
        {
            "area_id": 142,
            "db_id": 1390,
            "area_name": "F2.ATRIUM.ZONE1.JSON",
            "hex": "7485",
            "mac": "E1:77:A0:C9:E0:FA",
            "dec": 29829,
            "id": 99
        },
        {
            "area_id": 142,
            "db_id": 1354,
            "area_name": "F2.ATRIUM.ZONE1.JSON",
            "hex": "75A5",
            "mac": "ED:02:A0:92:CD:2E",
            "dec": 30117,
            "id": 100
        },
        {
            "area_id": 143,
            "db_id": 1199,
            "area_name": "F2.ATRIUM.ZONE2.JSON",
            "hex": "7A7D",
            "mac": "CF:C4:F9:12:E8:D9",
            "dec": 31357,
            "id": 101
        },
        {
            "area_id": 143,
            "db_id": 1334,
            "area_name": "F2.ATRIUM.ZONE2.JSON",
            "hex": "7645",
            "mac": "D8:AA:65:33:6F:E3",
            "dec": 30277,
            "id": 102
        },
        {
            "area_id": 147,
            "db_id": 1397,
            "area_name": "F2.BLUE1.ZONE1.JSON",
            "hex": "744D",
            "mac": "C6:FA:36:B9:98:70",
            "dec": 29773,
            "id": 103
        },
        {
            "area_id": 147,
            "db_id": 1599,
            "area_name": "F2.BLUE1.ZONE1.JSON",
            "hex": "6DFD",
            "mac": "C9:B0:5F:FD:B2:A2",
            "dec": 28157,
            "id": 104
        },
        {
            "area_id": 147,
            "db_id": 1215,
            "area_name": "F2.BLUE1.ZONE1.JSON",
            "hex": "79FD",
            "mac": "D1:A8:CC:79:FE:F7",
            "dec": 31229,
            "id": 105
        },
        {
            "area_id": 147,
            "db_id": 1360,
            "area_name": "F2.BLUE1.ZONE1.JSON",
            "hex": "7575",
            "mac": "D4:75:2A:D3:4C:34",
            "dec": 30069,
            "id": 106
        },
        {
            "area_id": 147,
            "db_id": 1523,
            "area_name": "F2.BLUE1.ZONE1.JSON",
            "hex": "705D",
            "mac": "D8:A3:EF:07:EC:B1",
            "dec": 28765,
            "id": 107
        },
        {
            "area_id": 147,
            "db_id": 1419,
            "area_name": "F2.BLUE1.ZONE1.JSON",
            "hex": "739D",
            "mac": "DA:25:1B:75:B9:CE",
            "dec": 29597,
            "id": 108
        },
        {
            "area_id": 147,
            "db_id": 1493,
            "area_name": "F2.BLUE1.ZONE1.JSON",
            "hex": "714D",
            "mac": "E3:6B:55:D8:8B:E9",
            "dec": 29005,
            "id": 109
        },
        {
            "area_id": 147,
            "db_id": 1592,
            "area_name": "F2.BLUE1.ZONE1.JSON",
            "hex": "6E35",
            "mac": "EB:ED:C3:EC:5D:16",
            "dec": 28213,
            "id": 110
        },
        {
            "area_id": 147,
            "db_id": 1491,
            "area_name": "F2.BLUE1.ZONE1.JSON",
            "hex": "715D",
            "mac": "F1:B6:48:95:D8:F9",
            "dec": 29021,
            "id": 111
        },
        {
            "area_id": 147,
            "db_id": 1479,
            "area_name": "F2.BLUE1.ZONE1.JSON",
            "hex": "71BD",
            "mac": "F6:75:F1:65:A1:53",
            "dec": 29117,
            "id": 112
        },
        {
            "area_id": 147,
            "db_id": 1308,
            "area_name": "F2.BLUE1.ZONE1.JSON",
            "hex": "7715",
            "mac": "F8:23:E6:3F:5C:7F",
            "dec": 30485,
            "id": 113
        },
        {
            "area_id": 147,
            "db_id": 1279,
            "area_name": "F2.BLUE1.ZONE1.JSON",
            "hex": "77FD",
            "mac": "FB:A8:B6:9D:61:86",
            "dec": 30717,
            "id": 114
        },
        {
            "area_id": 147,
            "db_id": 1325,
            "area_name": "F2.BLUE1.ZONE1.JSON",
            "hex": "768D",
            "mac": "FE:79:B9:1A:A5:43",
            "dec": 30349,
            "id": 115
        },
        {
            "area_id": 148,
            "db_id": 1605,
            "area_name": "F2.BLUE1.ZONE2.JSON",
            "hex": "6DCD",
            "mac": "C1:A3:10:ED:7E:B4",
            "dec": 28109,
            "id": 116
        },
        {
            "area_id": 148,
            "db_id": 1468,
            "area_name": "F2.BLUE1.ZONE2.JSON",
            "hex": "7215",
            "mac": "D1:5F:64:D9:E8:DC",
            "dec": 29205,
            "id": 117
        },
        {
            "area_id": 148,
            "db_id": 1234,
            "area_name": "F2.BLUE1.ZONE2.JSON",
            "hex": "7965",
            "mac": "D7:DE:77:C8:CE:57",
            "dec": 31077,
            "id": 118
        },
        {
            "area_id": 148,
            "db_id": 1237,
            "area_name": "F2.BLUE1.ZONE2.JSON",
            "hex": "794D",
            "mac": "D8:48:1F:E1:58:6F",
            "dec": 31053,
            "id": 119
        },
        {
            "area_id": 148,
            "db_id": 1259,
            "area_name": "F2.BLUE1.ZONE2.JSON",
            "hex": "789D",
            "mac": "D8:49:C6:35:40:D7",
            "dec": 30877,
            "id": 120
        },
        {
            "area_id": 148,
            "db_id": 1317,
            "area_name": "F2.BLUE1.ZONE2.JSON",
            "hex": "76CD",
            "mac": "E5:D4:E4:F4:40:3C",
            "dec": 30413,
            "id": 121
        },
        {
            "area_id": 148,
            "db_id": 1405,
            "area_name": "F2.BLUE1.ZONE2.JSON",
            "hex": "740D",
            "mac": "EA:5F:D4:91:8A:A9",
            "dec": 29709,
            "id": 122
        },
        {
            "area_id": 148,
            "db_id": 1617,
            "area_name": "F2.BLUE1.ZONE2.JSON",
            "hex": "6D6D",
            "mac": "F2:38:BB:6E:A2:25",
            "dec": 28013,
            "id": 123
        },
        {
            "area_id": 148,
            "db_id": 1343,
            "area_name": "F2.BLUE1.ZONE2.JSON",
            "hex": "75FD",
            "mac": "F6:E4:D5:04:9A:C4",
            "dec": 30205,
            "id": 124
        },
        {
            "area_id": 148,
            "db_id": 1204,
            "area_name": "F2.BLUE1.ZONE2.JSON",
            "hex": "7A55",
            "mac": "F8:D4:BF:1F:54:77",
            "dec": 31317,
            "id": 125
        },
        {
            "area_id": 149,
            "db_id": 1495,
            "area_name": "F2.BLUE1.ZONE3.JSON",
            "hex": "713D",
            "mac": "C3:A1:BA:32:51:E7",
            "dec": 28989,
            "id": 126
        },
        {
            "area_id": 149,
            "db_id": 1535,
            "area_name": "F2.BLUE1.ZONE3.JSON",
            "hex": "6FFD",
            "mac": "C6:2C:9D:BD:B7:4A",
            "dec": 28669,
            "id": 127
        },
        {
            "area_id": 149,
            "db_id": 1477,
            "area_name": "F2.BLUE1.ZONE3.JSON",
            "hex": "71CD",
            "mac": "C7:27:94:47:12:F8",
            "dec": 29133,
            "id": 128
        },
        {
            "area_id": 149,
            "db_id": 1246,
            "area_name": "F2.BLUE1.ZONE3.JSON",
            "hex": "7905",
            "mac": "D1:CB:69:C8:33:88",
            "dec": 30981,
            "id": 129
        },
        {
            "area_id": 149,
            "db_id": 1632,
            "area_name": "F2.BLUE1.ZONE3.JSON",
            "hex": "6CF5",
            "mac": "D9:B6:14:4E:60:C3",
            "dec": 27893,
            "id": 130
        },
        {
            "area_id": 149,
            "db_id": 1373,
            "area_name": "F2.BLUE1.ZONE3.JSON",
            "hex": "750D",
            "mac": "DD:3B:19:12:84:88",
            "dec": 29965,
            "id": 131
        },
        {
            "area_id": 149,
            "db_id": 1512,
            "area_name": "F2.BLUE1.ZONE3.JSON",
            "hex": "70B5",
            "mac": "E0:5E:FC:E7:59:9D",
            "dec": 28853,
            "id": 132
        },
        {
            "area_id": 149,
            "db_id": 1604,
            "area_name": "F2.BLUE1.ZONE3.JSON",
            "hex": "6DD5",
            "mac": "E2:28:F0:6E:73:FD",
            "dec": 28117,
            "id": 133
        },
        {
            "area_id": 149,
            "db_id": 1514,
            "area_name": "F2.BLUE1.ZONE3.JSON",
            "hex": "70A5",
            "mac": "F1:BF:37:93:49:66",
            "dec": 28837,
            "id": 134
        },
        {
            "area_id": 152,
            "db_id": 1256,
            "area_name": "F2.BLUE2.ZONE1.JSON",
            "hex": "78B5",
            "mac": "C6:DF:BA:18:0E:69",
            "dec": 30901,
            "id": 135
        },
        {
            "area_id": 152,
            "db_id": 1641,
            "area_name": "F2.BLUE2.ZONE1.JSON",
            "hex": "6CAD",
            "mac": "C9:4F:1A:F6:56:4E",
            "dec": 27821,
            "id": 136
        },
        {
            "area_id": 152,
            "db_id": 1299,
            "area_name": "F2.BLUE2.ZONE1.JSON",
            "hex": "775D",
            "mac": "C9:BE:AA:9D:7B:C2",
            "dec": 30557,
            "id": 137
        },
        {
            "area_id": 152,
            "db_id": 1431,
            "area_name": "F2.BLUE2.ZONE1.JSON",
            "hex": "733D",
            "mac": "CC:8E:97:7E:27:D5",
            "dec": 29501,
            "id": 138
        },
        {
            "area_id": 152,
            "db_id": 1402,
            "area_name": "F2.BLUE2.ZONE1.JSON",
            "hex": "7425",
            "mac": "D1:F5:C1:B9:9A:F7",
            "dec": 29733,
            "id": 139
        },
        {
            "area_id": 152,
            "db_id": 1448,
            "area_name": "F2.BLUE2.ZONE1.JSON",
            "hex": "72B5",
            "mac": "D3:6A:D4:01:BC:D9",
            "dec": 29365,
            "id": 140
        },
        {
            "area_id": 152,
            "db_id": 1440,
            "area_name": "F2.BLUE2.ZONE1.JSON",
            "hex": "72F5",
            "mac": "DA:A9:8A:5C:59:B0",
            "dec": 29429,
            "id": 141
        },
        {
            "area_id": 152,
            "db_id": 1368,
            "area_name": "F2.BLUE2.ZONE1.JSON",
            "hex": "7535",
            "mac": "DB:29:BA:B9:19:3E",
            "dec": 30005,
            "id": 142
        },
        {
            "area_id": 152,
            "db_id": 1321,
            "area_name": "F2.BLUE2.ZONE1.JSON",
            "hex": "76AD",
            "mac": "E1:44:8C:2F:9B:E0",
            "dec": 30381,
            "id": 143
        },
        {
            "area_id": 152,
            "db_id": 1374,
            "area_name": "F2.BLUE2.ZONE1.JSON",
            "hex": "7505",
            "mac": "E4:4E:80:33:8A:7E",
            "dec": 29957,
            "id": 144
        },
        {
            "area_id": 152,
            "db_id": 1238,
            "area_name": "F2.BLUE2.ZONE1.JSON",
            "hex": "7945",
            "mac": "E8:EB:5C:8E:D3:70",
            "dec": 31045,
            "id": 145
        },
        {
            "area_id": 152,
            "db_id": 1642,
            "area_name": "F2.BLUE2.ZONE1.JSON",
            "hex": "6CA5",
            "mac": "EC:E6:3F:A4:B5:DB",
            "dec": 27813,
            "id": 146
        },
        {
            "area_id": 152,
            "db_id": 1261,
            "area_name": "F2.BLUE2.ZONE1.JSON",
            "hex": "788D",
            "mac": "F7:F2:CA:C2:B9:3C",
            "dec": 30861,
            "id": 147
        },
        {
            "area_id": 152,
            "db_id": 1472,
            "area_name": "F2.BLUE2.ZONE1.JSON",
            "hex": "71F5",
            "mac": "FC:76:EB:99:1A:C8",
            "dec": 29173,
            "id": 148
        },
        {
            "area_id": 152,
            "db_id": 1295,
            "area_name": "F2.BLUE2.ZONE1.JSON",
            "hex": "777D",
            "mac": "FE:DF:81:12:60:C8",
            "dec": 30589,
            "id": 149
        },
        {
            "area_id": 152,
            "db_id": 1366,
            "area_name": "F2.BLUE2.ZONE1.JSON",
            "hex": "7545",
            "mac": "FF:37:1B:90:34:B1",
            "dec": 30021,
            "id": 150
        },
        {
            "area_id": 153,
            "db_id": 1449,
            "area_name": "F2.BLUE2.ZONE2.JSON",
            "hex": "72AD",
            "mac": "D3:46:41:27:64:91",
            "dec": 29357,
            "id": 151
        },
        {
            "area_id": 153,
            "db_id": 1197,
            "area_name": "F2.BLUE2.ZONE2.JSON",
            "hex": "7A8D",
            "mac": "F0:29:95:B0:18:F2",
            "dec": 31373,
            "id": 152
        },
        {
            "area_id": 153,
            "db_id": 1241,
            "area_name": "F2.BLUE2.ZONE2.JSON",
            "hex": "792D",
            "mac": "F1:FA:70:AC:75:F1",
            "dec": 31021,
            "id": 153
        },
        {
            "area_id": 153,
            "db_id": 1556,
            "area_name": "F2.BLUE2.ZONE2.JSON",
            "hex": "6F55",
            "mac": "F5:2C:A4:E3:0E:72",
            "dec": 28501,
            "id": 154
        },
        {
            "area_id": 154,
            "db_id": 1569,
            "area_name": "F2.BLUE2.ZONE3.JSON",
            "hex": "6EED",
            "mac": "C5:11:4B:A0:DC:6D",
            "dec": 28397,
            "id": 155
        },
        {
            "area_id": 154,
            "db_id": 1314,
            "area_name": "F2.BLUE2.ZONE3.JSON",
            "hex": "76E5",
            "mac": "CA:CB:94:99:07:E5",
            "dec": 30437,
            "id": 156
        },
        {
            "area_id": 154,
            "db_id": 1264,
            "area_name": "F2.BLUE2.ZONE3.JSON",
            "hex": "7875",
            "mac": "CD:5B:23:33:F5:16",
            "dec": 30837,
            "id": 157
        },
        {
            "area_id": 154,
            "db_id": 1670,
            "area_name": "F2.BLUE2.ZONE3.JSON",
            "hex": "6BC5",
            "mac": "D0:D6:75:5A:E1:5E",
            "dec": 27589,
            "id": 158
        },
        {
            "area_id": 154,
            "db_id": 1439,
            "area_name": "F2.BLUE2.ZONE3.JSON",
            "hex": "72FD",
            "mac": "D9:CC:EF:A3:65:8B",
            "dec": 29437,
            "id": 159
        },
        {
            "area_id": 154,
            "db_id": 1367,
            "area_name": "F2.BLUE2.ZONE3.JSON",
            "hex": "753D",
            "mac": "E3:B4:07:79:08:0B",
            "dec": 30013,
            "id": 160
        },
        {
            "area_id": 154,
            "db_id": 1193,
            "area_name": "F2.BLUE2.ZONE3.JSON",
            "hex": "7AAD",
            "mac": "E9:F1:90:3A:F1:82",
            "dec": 31405,
            "id": 161
        },
        {
            "area_id": 155,
            "db_id": 1203,
            "area_name": "F2.BLUE2.ZONE4.JSON",
            "hex": "7A5D",
            "mac": "F6:9A:88:FB:EA:DC",
            "dec": 31325,
            "id": 162
        },
        {
            "area_id": 157,
            "db_id": 1300,
            "area_name": "F2.BLUE3.ZONE1.JSON",
            "hex": "7755",
            "mac": "C6:EA:BE:4D:30:E0",
            "dec": 30549,
            "id": 163
        },
        {
            "area_id": 157,
            "db_id": 1464,
            "area_name": "F2.BLUE3.ZONE1.JSON",
            "hex": "7235",
            "mac": "C8:08:85:17:97:0B",
            "dec": 29237,
            "id": 164
        },
        {
            "area_id": 157,
            "db_id": 1400,
            "area_name": "F2.BLUE3.ZONE1.JSON",
            "hex": "7435",
            "mac": "C9:76:84:2B:E7:2A",
            "dec": 29749,
            "id": 165
        },
        {
            "area_id": 157,
            "db_id": 1628,
            "area_name": "F2.BLUE3.ZONE1.JSON",
            "hex": "6D15",
            "mac": "CB:AF:AE:A1:2D:A4",
            "dec": 27925,
            "id": 166
        },
        {
            "area_id": 157,
            "db_id": 1656,
            "area_name": "F2.BLUE3.ZONE1.JSON",
            "hex": "6C35",
            "mac": "CD:76:08:29:8C:E3",
            "dec": 27701,
            "id": 167
        },
        {
            "area_id": 157,
            "db_id": 1541,
            "area_name": "F2.BLUE3.ZONE1.JSON",
            "hex": "6FCD",
            "mac": "DD:2D:3A:9D:CC:52",
            "dec": 28621,
            "id": 168
        },
        {
            "area_id": 157,
            "db_id": 1441,
            "area_name": "F2.BLUE3.ZONE1.JSON",
            "hex": "72ED",
            "mac": "E0:73:10:42:47:68",
            "dec": 29421,
            "id": 169
        },
        {
            "area_id": 157,
            "db_id": 1278,
            "area_name": "F2.BLUE3.ZONE1.JSON",
            "hex": "7805",
            "mac": "E1:F5:26:4D:65:90",
            "dec": 30725,
            "id": 170
        },
        {
            "area_id": 157,
            "db_id": 1635,
            "area_name": "F2.BLUE3.ZONE1.JSON",
            "hex": "6CDD",
            "mac": "E8:F4:A0:7F:C7:30",
            "dec": 27869,
            "id": 171
        },
        {
            "area_id": 157,
            "db_id": 1492,
            "area_name": "F2.BLUE3.ZONE1.JSON",
            "hex": "7155",
            "mac": "EE:5F:1C:64:EE:9C",
            "dec": 29013,
            "id": 172
        },
        {
            "area_id": 157,
            "db_id": 1471,
            "area_name": "F2.BLUE3.ZONE1.JSON",
            "hex": "71FD",
            "mac": "F2:6C:C9:6A:25:18",
            "dec": 29181,
            "id": 173
        },
        {
            "area_id": 157,
            "db_id": 1276,
            "area_name": "F2.BLUE3.ZONE1.JSON",
            "hex": "7815",
            "mac": "F4:11:B2:31:9A:B0",
            "dec": 30741,
            "id": 174
        },
        {
            "area_id": 157,
            "db_id": 1465,
            "area_name": "F2.BLUE3.ZONE1.JSON",
            "hex": "722D",
            "mac": "FB:EF:64:CB:5C:BC",
            "dec": 29229,
            "id": 175
        },
        {
            "area_id": 158,
            "db_id": 1542,
            "area_name": "F2.BLUE3.ZONE2.JSON",
            "hex": "6FC5",
            "mac": "C6:E5:40:0E:7E:73",
            "dec": 28613,
            "id": 176
        },
        {
            "area_id": 158,
            "db_id": 1505,
            "area_name": "F2.BLUE3.ZONE2.JSON",
            "hex": "70ED",
            "mac": "C7:6F:D5:F9:4D:7B",
            "dec": 28909,
            "id": 177
        },
        {
            "area_id": 158,
            "db_id": 1356,
            "area_name": "F2.BLUE3.ZONE2.JSON",
            "hex": "7595",
            "mac": "C8:DD:DD:19:1F:8B",
            "dec": 30101,
            "id": 178
        },
        {
            "area_id": 158,
            "db_id": 1630,
            "area_name": "F2.BLUE3.ZONE2.JSON",
            "hex": "6D05",
            "mac": "CD:51:2D:4A:39:EE",
            "dec": 27909,
            "id": 179
        },
        {
            "area_id": 158,
            "db_id": 1627,
            "area_name": "F2.BLUE3.ZONE2.JSON",
            "hex": "6D1D",
            "mac": "D7:B9:A6:5E:9D:45",
            "dec": 27933,
            "id": 180
        },
        {
            "area_id": 158,
            "db_id": 1513,
            "area_name": "F2.BLUE3.ZONE2.JSON",
            "hex": "70AD",
            "mac": "D7:E3:DF:9B:E4:E1",
            "dec": 28845,
            "id": 181
        },
        {
            "area_id": 158,
            "db_id": 1313,
            "area_name": "F2.BLUE3.ZONE2.JSON",
            "hex": "76ED",
            "mac": "D8:D2:7C:86:D3:F4",
            "dec": 30445,
            "id": 182
        },
        {
            "area_id": 158,
            "db_id": 1547,
            "area_name": "F2.BLUE3.ZONE2.JSON",
            "hex": "6F9D",
            "mac": "D8:E8:68:6D:CF:9D",
            "dec": 28573,
            "id": 183
        },
        {
            "area_id": 158,
            "db_id": 1326,
            "area_name": "F2.BLUE3.ZONE2.JSON",
            "hex": "7685",
            "mac": "DA:E3:96:BE:A8:E1",
            "dec": 30341,
            "id": 184
        },
        {
            "area_id": 158,
            "db_id": 1305,
            "area_name": "F2.BLUE3.ZONE2.JSON",
            "hex": "772D",
            "mac": "DB:9D:F6:87:95:11",
            "dec": 30509,
            "id": 185
        },
        {
            "area_id": 158,
            "db_id": 1411,
            "area_name": "F2.BLUE3.ZONE2.JSON",
            "hex": "73DD",
            "mac": "DF:BB:42:C5:8C:01",
            "dec": 29661,
            "id": 186
        },
        {
            "area_id": 158,
            "db_id": 1533,
            "area_name": "F2.BLUE3.ZONE2.JSON",
            "hex": "700D",
            "mac": "E7:7C:5D:43:76:D1",
            "dec": 28685,
            "id": 187
        },
        {
            "area_id": 158,
            "db_id": 1574,
            "area_name": "F2.BLUE3.ZONE2.JSON",
            "hex": "6EC5",
            "mac": "F7:99:BB:11:36:5D",
            "dec": 28357,
            "id": 188
        },
        {
            "area_id": 158,
            "db_id": 1563,
            "area_name": "F2.BLUE3.ZONE2.JSON",
            "hex": "6F1D",
            "mac": "FB:B6:9D:03:39:9C",
            "dec": 28445,
            "id": 189
        },
        {
            "area_id": 158,
            "db_id": 1634,
            "area_name": "F2.BLUE3.ZONE2.JSON",
            "hex": "6CE5",
            "mac": "FC:F8:8C:52:B9:0B",
            "dec": 27877,
            "id": 190
        },
        {
            "area_id": 158,
            "db_id": 1470,
            "area_name": "F2.BLUE3.ZONE2.JSON",
            "hex": "7205",
            "mac": "FD:69:AB:90:48:22",
            "dec": 29189,
            "id": 191
        },
        {
            "area_id": 159,
            "db_id": 1557,
            "area_name": "F2.BLUE3.ZONE3.JSON",
            "hex": "6F4D",
            "mac": "CB:E3:EA:8D:6F:09",
            "dec": 28493,
            "id": 192
        },
        {
            "area_id": 159,
            "db_id": 1652,
            "area_name": "F2.BLUE3.ZONE3.JSON",
            "hex": "6C55",
            "mac": "CC:E0:F9:40:85:F1",
            "dec": 27733,
            "id": 193
        },
        {
            "area_id": 159,
            "db_id": 1544,
            "area_name": "F2.BLUE3.ZONE3.JSON",
            "hex": "6FB5",
            "mac": "DE:A0:2A:75:2E:82",
            "dec": 28597,
            "id": 194
        },
        {
            "area_id": 159,
            "db_id": 1282,
            "area_name": "F2.BLUE3.ZONE3.JSON",
            "hex": "77E5",
            "mac": "DF:C1:74:86:21:8E",
            "dec": 30693,
            "id": 195
        },
        {
            "area_id": 159,
            "db_id": 1377,
            "area_name": "F2.BLUE3.ZONE3.JSON",
            "hex": "74ED",
            "mac": "E6:17:D7:43:32:5F",
            "dec": 29933,
            "id": 196
        },
        {
            "area_id": 159,
            "db_id": 1247,
            "area_name": "F2.BLUE3.ZONE3.JSON",
            "hex": "78FD",
            "mac": "F3:04:DB:A2:35:F9",
            "dec": 30973,
            "id": 197
        },
        {
            "area_id": 127,
            "db_id": 1517,
            "area_name": "F2.ZONEA.1.JSON",
            "hex": "708D",
            "mac": "DA:B6:6E:13:96:66",
            "dec": 28813,
            "id": 198
        },
        {
            "area_id": 127,
            "db_id": 1566,
            "area_name": "F2.ZONEA.1.JSON",
            "hex": "6F05",
            "mac": "DB:1E:7D:B5:51:EB",
            "dec": 28421,
            "id": 199
        },
        {
            "area_id": 127,
            "db_id": 1665,
            "area_name": "F2.ZONEA.1.JSON",
            "hex": "6BED",
            "mac": "DB:8B:AF:06:DC:DC",
            "dec": 27629,
            "id": 200
        },
        {
            "area_id": 127,
            "db_id": 1509,
            "area_name": "F2.ZONEA.1.JSON",
            "hex": "70CD",
            "mac": "DD:F0:F9:0B:4C:F1",
            "dec": 28877,
            "id": 201
        },
        {
            "area_id": 127,
            "db_id": 1637,
            "area_name": "F2.ZONEA.1.JSON",
            "hex": "6CCD",
            "mac": "E5:0B:4C:49:46:9E",
            "dec": 27853,
            "id": 202
        },
        {
            "area_id": 127,
            "db_id": 1432,
            "area_name": "F2.ZONEA.1.JSON",
            "hex": "7335",
            "mac": "F1:4C:F3:43:44:91",
            "dec": 29493,
            "id": 203
        },
        {
            "area_id": 127,
            "db_id": 1404,
            "area_name": "F2.ZONEA.1.JSON",
            "hex": "7415",
            "mac": "F6:84:92:31:7B:69",
            "dec": 29717,
            "id": 204
        },
        {
            "area_id": 127,
            "db_id": 1286,
            "area_name": "F2.ZONEA.1.JSON",
            "hex": "77C5",
            "mac": "F9:B9:B9:D7:45:D2",
            "dec": 30661,
            "id": 205
        },
        {
            "area_id": 128,
            "db_id": 1337,
            "area_name": "F2.ZONEA.2.JSON",
            "hex": "762D",
            "mac": "C7:45:33:DA:B8:FA",
            "dec": 30253,
            "id": 206
        },
        {
            "area_id": 128,
            "db_id": 1452,
            "area_name": "F2.ZONEA.2.JSON",
            "hex": "7295",
            "mac": "C7:B2:AD:CD:4C:2A",
            "dec": 29333,
            "id": 207
        },
        {
            "area_id": 128,
            "db_id": 1613,
            "area_name": "F2.ZONEA.2.JSON",
            "hex": "6D8D",
            "mac": "D1:23:44:64:59:6D",
            "dec": 28045,
            "id": 208
        },
        {
            "area_id": 128,
            "db_id": 1506,
            "area_name": "F2.ZONEA.2.JSON",
            "hex": "70E5",
            "mac": "DD:6F:2A:6F:07:5A",
            "dec": 28901,
            "id": 209
        },
        {
            "area_id": 128,
            "db_id": 1284,
            "area_name": "F2.ZONEA.2.JSON",
            "hex": "77D5",
            "mac": "DD:98:30:98:B6:C9",
            "dec": 30677,
            "id": 210
        },
        {
            "area_id": 128,
            "db_id": 1210,
            "area_name": "F2.ZONEA.2.JSON",
            "hex": "7A25",
            "mac": "EC:37:A9:CD:B7:35",
            "dec": 31269,
            "id": 211
        },
        {
            "area_id": 128,
            "db_id": 1235,
            "area_name": "F2.ZONEA.2.JSON",
            "hex": "795D",
            "mac": "ED:91:1B:E2:E5:C2",
            "dec": 31069,
            "id": 212
        },
        {
            "area_id": 128,
            "db_id": 1191,
            "area_name": "F2.ZONEA.2.JSON",
            "hex": "7ABD",
            "mac": "F0:38:52:80:D5:04",
            "dec": 31421,
            "id": 213
        },
        {
            "area_id": 128,
            "db_id": 1184,
            "area_name": "F2.ZONEA.2.JSON",
            "hex": "7AF5",
            "mac": "F0:83:AD:78:3B:03",
            "dec": 31477,
            "id": 214
        },
        {
            "area_id": 128,
            "db_id": 1518,
            "area_name": "F2.ZONEA.2.JSON",
            "hex": "7085",
            "mac": "F4:5B:05:D0:98:01",
            "dec": 28805,
            "id": 215
        },
        {
            "area_id": 128,
            "db_id": 1275,
            "area_name": "F2.ZONEA.2.JSON",
            "hex": "781D",
            "mac": "F5:90:CF:39:6D:2B",
            "dec": 30749,
            "id": 216
        },
        {
            "area_id": 128,
            "db_id": 1672,
            "area_name": "F2.ZONEA.2.JSON",
            "hex": "6BB5",
            "mac": "F7:6F:CA:8D:7B:49",
            "dec": 27573,
            "id": 217
        },
        {
            "area_id": 128,
            "db_id": 1494,
            "area_name": "F2.ZONEA.2.JSON",
            "hex": "7145",
            "mac": "FA:50:65:E8:DC:73",
            "dec": 28997,
            "id": 218
        },
        {
            "area_id": 128,
            "db_id": 1524,
            "area_name": "F2.ZONEA.2.JSON",
            "hex": "7055",
            "mac": "FB:AE:AA:2A:1F:D9",
            "dec": 28757,
            "id": 219
        },
        {
            "area_id": 128,
            "db_id": 1190,
            "area_name": "F2.ZONEA.2.JSON",
            "hex": "7AC5",
            "mac": "FE:A4:E0:F2:59:2E",
            "dec": 31429,
            "id": 220
        },
        {
            "area_id": 128,
            "db_id": 1236,
            "area_name": "F2.ZONEA.2.JSON",
            "hex": "7955",
            "mac": "FF:E3:B1:0D:77:1D",
            "dec": 31061,
            "id": 221
        },
        {
            "area_id": 132,
            "db_id": 1263,
            "area_name": "F2.ZONEB.1.JSON",
            "hex": "787D",
            "mac": "FD:37:50:15:CA:F9",
            "dec": 30845,
            "id": 222
        },
        {
            "area_id": 133,
            "db_id": 1384,
            "area_name": "F2.ZONEB.2.JSON",
            "hex": "74B5",
            "mac": "CD:13:03:C2:55:E5",
            "dec": 29877,
            "id": 223
        },
        {
            "area_id": 133,
            "db_id": 1520,
            "area_name": "F2.ZONEB.2.JSON",
            "hex": "7075",
            "mac": "D1:85:DD:9B:5F:B6",
            "dec": 28789,
            "id": 224
        },
        {
            "area_id": 133,
            "db_id": 1365,
            "area_name": "F2.ZONEB.2.JSON",
            "hex": "754D",
            "mac": "D4:9D:EE:91:1A:02",
            "dec": 30029,
            "id": 225
        },
        {
            "area_id": 133,
            "db_id": 1456,
            "area_name": "F2.ZONEB.2.JSON",
            "hex": "7275",
            "mac": "D9:25:DE:51:FD:93",
            "dec": 29301,
            "id": 226
        },
        {
            "area_id": 133,
            "db_id": 1422,
            "area_name": "F2.ZONEB.2.JSON",
            "hex": "7385",
            "mac": "EE:2E:15:0A:2D:31",
            "dec": 29573,
            "id": 227
        },
        {
            "area_id": 134,
            "db_id": 1482,
            "area_name": "F2.ZONEB.3.JSON",
            "hex": "71A5",
            "mac": "C3:A4:86:67:6A:4A",
            "dec": 29093,
            "id": 228
        },
        {
            "area_id": 134,
            "db_id": 1342,
            "area_name": "F2.ZONEB.3.JSON",
            "hex": "7605",
            "mac": "F9:97:5C:E3:A9:29",
            "dec": 30213,
            "id": 229
        },
        {
            "area_id": 134,
            "db_id": 1430,
            "area_name": "F2.ZONEB.3.JSON",
            "hex": "7345",
            "mac": "FD:5A:02:1E:5F:4D",
            "dec": 29509,
            "id": 230
        },
        {
            "area_id": 135,
            "db_id": 1649,
            "area_name": "F2.ZONEB.4.JSON",
            "hex": "6C6D",
            "mac": "C9:9C:DD:5F:89:3D",
            "dec": 27757,
            "id": 231
        },
        {
            "area_id": 135,
            "db_id": 1420,
            "area_name": "F2.ZONEB.4.JSON",
            "hex": "7395",
            "mac": "CB:A8:53:20:99:7F",
            "dec": 29589,
            "id": 232
        },
        {
            "area_id": 135,
            "db_id": 1572,
            "area_name": "F2.ZONEB.4.JSON",
            "hex": "6ED5",
            "mac": "FA:C9:E5:26:CF:4E",
            "dec": 28373,
            "id": 233
        },
        {
            "area_id": 135,
            "db_id": 1315,
            "area_name": "F2.ZONEB.4.JSON",
            "hex": "76DD",
            "mac": "FE:55:72:C8:6E:3B",
            "dec": 30429,
            "id": 234
        },
        {
            "area_id": 45,
            "db_id": 1583,
            "area_name": "F3.ATRIUM.JSON",
            "hex": "6E7D",
            "mac": "CB:84:94:95:A4:AB",
            "dec": 28285,
            "id": 235
        },
        {
            "area_id": 197,
            "db_id": 1534,
            "area_name": "F3.RED1.ZONE1.JSON",
            "hex": "7005",
            "mac": "C0:7C:E5:AA:CF:C1",
            "dec": 28677,
            "id": 236
        },
        {
            "area_id": 197,
            "db_id": 1538,
            "area_name": "F3.RED1.ZONE1.JSON",
            "hex": "6FE5",
            "mac": "CE:D5:02:28:7B:80",
            "dec": 28645,
            "id": 237
        },
        {
            "area_id": 197,
            "db_id": 1240,
            "area_name": "F3.RED1.ZONE1.JSON",
            "hex": "7935",
            "mac": "DC:A6:50:35:F7:EA",
            "dec": 31029,
            "id": 238
        },
        {
            "area_id": 197,
            "db_id": 1267,
            "area_name": "F3.RED1.ZONE1.JSON",
            "hex": "785D",
            "mac": "DE:89:F4:F1:63:CB",
            "dec": 30813,
            "id": 239
        },
        {
            "area_id": 197,
            "db_id": 1662,
            "area_name": "F3.RED1.ZONE1.JSON",
            "hex": "6C05",
            "mac": "E3:45:79:E5:11:8C",
            "dec": 27653,
            "id": 240
        },
        {
            "area_id": 197,
            "db_id": 1485,
            "area_name": "F3.RED1.ZONE1.JSON",
            "hex": "718D",
            "mac": "ED:5E:AE:7D:11:C1",
            "dec": 29069,
            "id": 241
        },
        {
            "area_id": 197,
            "db_id": 1229,
            "area_name": "F3.RED1.ZONE1.JSON",
            "hex": "798D",
            "mac": "F7:ED:DD:FB:8F:42",
            "dec": 31117,
            "id": 242
        },
        {
            "area_id": 197,
            "db_id": 1537,
            "area_name": "F3.RED1.ZONE1.JSON",
            "hex": "6FED",
            "mac": "FD:CB:F5:08:CD:55",
            "dec": 28653,
            "id": 243
        },
        {
            "area_id": 198,
            "db_id": 1522,
            "area_name": "F3.RED1.ZONE2.JSON",
            "hex": "7065",
            "mac": "C7:95:16:F8:C8:4D",
            "dec": 28773,
            "id": 244
        },
        {
            "area_id": 198,
            "db_id": 1226,
            "area_name": "F3.RED1.ZONE2.JSON",
            "hex": "79A5",
            "mac": "CA:93:D1:1D:1D:05",
            "dec": 31141,
            "id": 245
        },
        {
            "area_id": 198,
            "db_id": 1213,
            "area_name": "F3.RED1.ZONE2.JSON",
            "hex": "7A0D",
            "mac": "D2:0F:83:1A:0F:77",
            "dec": 31245,
            "id": 246
        },
        {
            "area_id": 198,
            "db_id": 1376,
            "area_name": "F3.RED1.ZONE2.JSON",
            "hex": "74F5",
            "mac": "D5:A6:BA:C1:25:F9",
            "dec": 29941,
            "id": 247
        },
        {
            "area_id": 198,
            "db_id": 1392,
            "area_name": "F3.RED1.ZONE2.JSON",
            "hex": "7475",
            "mac": "DC:0A:84:FE:7A:3A",
            "dec": 29813,
            "id": 248
        },
        {
            "area_id": 198,
            "db_id": 1318,
            "area_name": "F3.RED1.ZONE2.JSON",
            "hex": "76C5",
            "mac": "DD:EC:AD:2D:0D:4E",
            "dec": 30405,
            "id": 249
        },
        {
            "area_id": 198,
            "db_id": 1409,
            "area_name": "F3.RED1.ZONE2.JSON",
            "hex": "73ED",
            "mac": "E6:67:98:65:AC:3F",
            "dec": 29677,
            "id": 250
        },
        {
            "area_id": 198,
            "db_id": 1640,
            "area_name": "F3.RED1.ZONE2.JSON",
            "hex": "6CB5",
            "mac": "E8:C4:46:87:5C:82",
            "dec": 27829,
            "id": 251
        },
        {
            "area_id": 198,
            "db_id": 1457,
            "area_name": "F3.RED1.ZONE2.JSON",
            "hex": "726D",
            "mac": "EA:F9:45:57:A3:66",
            "dec": 29293,
            "id": 252
        },
        {
            "area_id": 198,
            "db_id": 1582,
            "area_name": "F3.RED1.ZONE2.JSON",
            "hex": "6E85",
            "mac": "FA:31:6A:48:93:AE",
            "dec": 28293,
            "id": 253
        },
        {
            "area_id": 199,
            "db_id": 1285,
            "area_name": "F3.RED1.ZONE3.JSON",
            "hex": "77CD",
            "mac": "C7:02:BA:90:F0:F9",
            "dec": 30669,
            "id": 254
        },
        {
            "area_id": 199,
            "db_id": 1532,
            "area_name": "F3.RED1.ZONE3.JSON",
            "hex": "7015",
            "mac": "D1:53:7F:AB:FC:AF",
            "dec": 28693,
            "id": 255
        },
        {
            "area_id": 199,
            "db_id": 1245,
            "area_name": "F3.RED1.ZONE3.JSON",
            "hex": "790D",
            "mac": "D2:01:99:10:72:0B",
            "dec": 30989,
            "id": 256
        },
        {
            "area_id": 199,
            "db_id": 1653,
            "area_name": "F3.RED1.ZONE3.JSON",
            "hex": "6C4D",
            "mac": "DA:C9:69:59:4F:A7",
            "dec": 27725,
            "id": 257
        },
        {
            "area_id": 199,
            "db_id": 1486,
            "area_name": "F3.RED1.ZONE3.JSON",
            "hex": "7185",
            "mac": "DE:F9:7F:30:1F:87",
            "dec": 29061,
            "id": 258
        },
        {
            "area_id": 199,
            "db_id": 1577,
            "area_name": "F3.RED1.ZONE3.JSON",
            "hex": "6EAD",
            "mac": "E3:21:B3:4B:44:52",
            "dec": 28333,
            "id": 259
        },
        {
            "area_id": 202,
            "db_id": 1459,
            "area_name": "F3.RED2.ZONE1.JSON",
            "hex": "725D",
            "mac": "C2:83:0A:7D:98:53",
            "dec": 29277,
            "id": 260
        },
        {
            "area_id": 202,
            "db_id": 1257,
            "area_name": "F3.RED2.ZONE1.JSON",
            "hex": "78AD",
            "mac": "D4:ED:48:AA:71:11",
            "dec": 30893,
            "id": 261
        },
        {
            "area_id": 202,
            "db_id": 1250,
            "area_name": "F3.RED2.ZONE1.JSON",
            "hex": "78E5",
            "mac": "DB:07:BC:BF:B9:98",
            "dec": 30949,
            "id": 262
        },
        {
            "area_id": 202,
            "db_id": 1202,
            "area_name": "F3.RED2.ZONE1.JSON",
            "hex": "7A65",
            "mac": "E2:38:40:0D:CC:48",
            "dec": 31333,
            "id": 263
        },
        {
            "area_id": 202,
            "db_id": 1399,
            "area_name": "F3.RED2.ZONE1.JSON",
            "hex": "743D",
            "mac": "E8:C4:18:62:3D:58",
            "dec": 29757,
            "id": 264
        },
        {
            "area_id": 202,
            "db_id": 1272,
            "area_name": "F3.RED2.ZONE1.JSON",
            "hex": "7835",
            "mac": "ED:D1:AF:F1:32:3E",
            "dec": 30773,
            "id": 265
        },
        {
            "area_id": 202,
            "db_id": 1230,
            "area_name": "F3.RED2.ZONE1.JSON",
            "hex": "7985",
            "mac": "F5:F0:F1:9A:44:18",
            "dec": 31109,
            "id": 266
        },
        {
            "area_id": 202,
            "db_id": 1298,
            "area_name": "F3.RED2.ZONE1.JSON",
            "hex": "7765",
            "mac": "FF:5F:46:F6:D9:A2",
            "dec": 30565,
            "id": 267
        },
        {
            "area_id": 203,
            "db_id": 1200,
            "area_name": "F3.RED2.ZONE2.JSON",
            "hex": "7A75",
            "mac": "C1:FC:5F:2A:23:09",
            "dec": 31349,
            "id": 268
        },
        {
            "area_id": 203,
            "db_id": 1271,
            "area_name": "F3.RED2.ZONE2.JSON",
            "hex": "783D",
            "mac": "C4:D5:2D:51:2B:C0",
            "dec": 30781,
            "id": 269
        },
        {
            "area_id": 203,
            "db_id": 1418,
            "area_name": "F3.RED2.ZONE2.JSON",
            "hex": "73A5",
            "mac": "C7:62:04:69:88:05",
            "dec": 29605,
            "id": 270
        },
        {
            "area_id": 203,
            "db_id": 1508,
            "area_name": "F3.RED2.ZONE2.JSON",
            "hex": "70D5",
            "mac": "E3:8C:66:26:29:06",
            "dec": 28885,
            "id": 271
        },
        {
            "area_id": 203,
            "db_id": 1515,
            "area_name": "F3.RED2.ZONE2.JSON",
            "hex": "709D",
            "mac": "E9:18:11:0F:59:76",
            "dec": 28829,
            "id": 272
        },
        {
            "area_id": 203,
            "db_id": 1631,
            "area_name": "F3.RED2.ZONE2.JSON",
            "hex": "6CFD",
            "mac": "EE:7D:6F:26:E5:6D",
            "dec": 27901,
            "id": 273
        },
        {
            "area_id": 203,
            "db_id": 1559,
            "area_name": "F3.RED2.ZONE2.JSON",
            "hex": "6F3D",
            "mac": "EF:D4:B9:19:5E:29",
            "dec": 28477,
            "id": 274
        },
        {
            "area_id": 203,
            "db_id": 1466,
            "area_name": "F3.RED2.ZONE2.JSON",
            "hex": "7225",
            "mac": "F7:20:24:02:A6:A3",
            "dec": 29221,
            "id": 275
        },
        {
            "area_id": 204,
            "db_id": 1239,
            "area_name": "F3.RED2.ZONE3.JSON",
            "hex": "793D",
            "mac": "D7:9A:D7:28:88:BC",
            "dec": 31037,
            "id": 276
        },
        {
            "area_id": 204,
            "db_id": 1369,
            "area_name": "F3.RED2.ZONE3.JSON",
            "hex": "752D",
            "mac": "E1:91:A6:69:A4:0B",
            "dec": 29997,
            "id": 277
        },
        {
            "area_id": 204,
            "db_id": 1645,
            "area_name": "F3.RED2.ZONE3.JSON",
            "hex": "6C8D",
            "mac": "EB:78:EB:79:4A:F7",
            "dec": 27789,
            "id": 278
        },
        {
            "area_id": 204,
            "db_id": 1664,
            "area_name": "F3.RED2.ZONE3.JSON",
            "hex": "6BF5",
            "mac": "EB:83:72:4F:64:FC",
            "dec": 27637,
            "id": 279
        },
        {
            "area_id": 204,
            "db_id": 1220,
            "area_name": "F3.RED2.ZONE3.JSON",
            "hex": "79D5",
            "mac": "EF:28:55:04:FD:E4",
            "dec": 31189,
            "id": 280
        },
        {
            "area_id": 204,
            "db_id": 1516,
            "area_name": "F3.RED2.ZONE3.JSON",
            "hex": "7095",
            "mac": "F2:A0:2B:53:5D:74",
            "dec": 28821,
            "id": 281
        },
        {
            "area_id": 204,
            "db_id": 1344,
            "area_name": "F3.RED2.ZONE3.JSON",
            "hex": "75F5",
            "mac": "FF:66:89:CD:26:4D",
            "dec": 30197,
            "id": 282
        },
        {
            "area_id": 205,
            "db_id": 1437,
            "area_name": "F3.RED2.ZONE4.JSON",
            "hex": "730D",
            "mac": "D3:8C:11:2F:C0:16",
            "dec": 29453,
            "id": 283
        },
        {
            "area_id": 205,
            "db_id": 1555,
            "area_name": "F3.RED2.ZONE4.JSON",
            "hex": "6F5D",
            "mac": "E7:67:2D:24:B3:64",
            "dec": 28509,
            "id": 284
        },
        {
            "area_id": 205,
            "db_id": 1548,
            "area_name": "F3.RED2.ZONE4.JSON",
            "hex": "6F95",
            "mac": "F7:87:77:B3:B6:96",
            "dec": 28565,
            "id": 285
        },
        {
            "area_id": 207,
            "db_id": 1447,
            "area_name": "F3.RED3.ZONE1.JSON",
            "hex": "72BD",
            "mac": "C0:CD:42:0E:C9:1D",
            "dec": 29373,
            "id": 286
        },
        {
            "area_id": 207,
            "db_id": 1668,
            "area_name": "F3.RED3.ZONE1.JSON",
            "hex": "6BD5",
            "mac": "C5:25:84:82:CE:EB",
            "dec": 27605,
            "id": 287
        },
        {
            "area_id": 207,
            "db_id": 1410,
            "area_name": "F3.RED3.ZONE1.JSON",
            "hex": "73E5",
            "mac": "CA:CE:72:95:23:21",
            "dec": 29669,
            "id": 288
        },
        {
            "area_id": 207,
            "db_id": 1562,
            "area_name": "F3.RED3.ZONE1.JSON",
            "hex": "6F25",
            "mac": "CE:86:70:94:66:E8",
            "dec": 28453,
            "id": 289
        },
        {
            "area_id": 207,
            "db_id": 1500,
            "area_name": "F3.RED3.ZONE1.JSON",
            "hex": "7115",
            "mac": "D0:94:04:2A:8D:9A",
            "dec": 28949,
            "id": 290
        },
        {
            "area_id": 207,
            "db_id": 1638,
            "area_name": "F3.RED3.ZONE1.JSON",
            "hex": "6CC5",
            "mac": "D7:42:0F:A1:8E:C2",
            "dec": 27845,
            "id": 291
        },
        {
            "area_id": 207,
            "db_id": 1224,
            "area_name": "F3.RED3.ZONE1.JSON",
            "hex": "79B5",
            "mac": "DC:EF:14:31:1A:66",
            "dec": 31157,
            "id": 292
        },
        {
            "area_id": 207,
            "db_id": 1393,
            "area_name": "F3.RED3.ZONE1.JSON",
            "hex": "746D",
            "mac": "DE:D3:6A:4B:4B:1A",
            "dec": 29805,
            "id": 293
        },
        {
            "area_id": 207,
            "db_id": 1412,
            "area_name": "F3.RED3.ZONE1.JSON",
            "hex": "73D5",
            "mac": "DF:27:A9:8C:41:86",
            "dec": 29653,
            "id": 294
        },
        {
            "area_id": 207,
            "db_id": 1329,
            "area_name": "F3.RED3.ZONE1.JSON",
            "hex": "766D",
            "mac": "E0:90:39:0E:B4:69",
            "dec": 30317,
            "id": 295
        },
        {
            "area_id": 207,
            "db_id": 1350,
            "area_name": "F3.RED3.ZONE1.JSON",
            "hex": "75C5",
            "mac": "EC:05:48:2C:0F:AD",
            "dec": 30149,
            "id": 296
        },
        {
            "area_id": 207,
            "db_id": 1312,
            "area_name": "F3.RED3.ZONE1.JSON",
            "hex": "76F5",
            "mac": "FC:46:BC:8E:90:35",
            "dec": 30453,
            "id": 297
        },
        {
            "area_id": 207,
            "db_id": 1633,
            "area_name": "F3.RED3.ZONE1.JSON",
            "hex": "6CED",
            "mac": "FC:9C:EE:A8:4B:7E",
            "dec": 27885,
            "id": 298
        },
        {
            "area_id": 207,
            "db_id": 1467,
            "area_name": "F3.RED3.ZONE1.JSON",
            "hex": "721D",
            "mac": "FE:4A:65:41:36:63",
            "dec": 29213,
            "id": 299
        },
        {
            "area_id": 208,
            "db_id": 1407,
            "area_name": "F3.RED3.ZONE2.JSON",
            "hex": "73FD",
            "mac": "CC:31:89:37:D7:58",
            "dec": 29693,
            "id": 300
        },
        {
            "area_id": 208,
            "db_id": 1333,
            "area_name": "F3.RED3.ZONE2.JSON",
            "hex": "764D",
            "mac": "CD:71:61:ED:84:68",
            "dec": 30285,
            "id": 301
        },
        {
            "area_id": 208,
            "db_id": 1528,
            "area_name": "F3.RED3.ZONE2.JSON",
            "hex": "7035",
            "mac": "D1:02:E2:5A:09:09",
            "dec": 28725,
            "id": 302
        },
        {
            "area_id": 208,
            "db_id": 1609,
            "area_name": "F3.RED3.ZONE2.JSON",
            "hex": "6DAD",
            "mac": "D5:2B:A3:4F:9D:F1",
            "dec": 28077,
            "id": 303
        },
        {
            "area_id": 208,
            "db_id": 1383,
            "area_name": "F3.RED3.ZONE2.JSON",
            "hex": "74BD",
            "mac": "DC:0F:58:ED:93:16",
            "dec": 29885,
            "id": 304
        },
        {
            "area_id": 208,
            "db_id": 1551,
            "area_name": "F3.RED3.ZONE2.JSON",
            "hex": "6F7D",
            "mac": "E2:75:3A:81:6D:A4",
            "dec": 28541,
            "id": 305
        },
        {
            "area_id": 208,
            "db_id": 1616,
            "area_name": "F3.RED3.ZONE2.JSON",
            "hex": "6D75",
            "mac": "EA:A3:B7:C0:12:F7",
            "dec": 28021,
            "id": 306
        },
        {
            "area_id": 208,
            "db_id": 1510,
            "area_name": "F3.RED3.ZONE2.JSON",
            "hex": "70C5",
            "mac": "ED:31:A8:B2:1C:F9",
            "dec": 28869,
            "id": 307
        },
        {
            "area_id": 208,
            "db_id": 1349,
            "area_name": "F3.RED3.ZONE2.JSON",
            "hex": "75CD",
            "mac": "F6:30:82:AB:9D:40",
            "dec": 30157,
            "id": 308
        },
        {
            "area_id": 208,
            "db_id": 1600,
            "area_name": "F3.RED3.ZONE2.JSON",
            "hex": "6DF5",
            "mac": "FE:16:D7:A3:A9:DC",
            "dec": 28149,
            "id": 309
        },
        {
            "area_id": 209,
            "db_id": 1362,
            "area_name": "F3.RED3.ZONE3.JSON",
            "hex": "7565",
            "mac": "DA:74:14:83:33:4D",
            "dec": 30053,
            "id": 310
        },
        {
            "area_id": 209,
            "db_id": 1254,
            "area_name": "F3.RED3.ZONE3.JSON",
            "hex": "78C5",
            "mac": "F1:2D:7C:E3:0D:88",
            "dec": 30917,
            "id": 311
        },
        {
            "area_id": 177,
            "db_id": 1490,
            "area_name": "F3.ZONEA.ZONE1.JSON",
            "hex": "7165",
            "mac": "C1:9C:45:37:37:D4",
            "dec": 29029,
            "id": 312
        },
        {
            "area_id": 177,
            "db_id": 1451,
            "area_name": "F3.ZONEA.ZONE1.JSON",
            "hex": "729D",
            "mac": "C3:08:F2:48:53:13",
            "dec": 29341,
            "id": 313
        },
        {
            "area_id": 177,
            "db_id": 1663,
            "area_name": "F3.ZONEA.ZONE1.JSON",
            "hex": "6BFD",
            "mac": "C6:40:30:28:3C:DB",
            "dec": 27645,
            "id": 314
        },
        {
            "area_id": 177,
            "db_id": 1201,
            "area_name": "F3.ZONEA.ZONE1.JSON",
            "hex": "7A6D",
            "mac": "C6:68:25:F8:EA:16",
            "dec": 31341,
            "id": 315
        },
        {
            "area_id": 177,
            "db_id": 1426,
            "area_name": "F3.ZONEA.ZONE1.JSON",
            "hex": "7365",
            "mac": "C6:71:5B:CA:38:62",
            "dec": 29541,
            "id": 316
        },
        {
            "area_id": 177,
            "db_id": 1363,
            "area_name": "F3.ZONEA.ZONE1.JSON",
            "hex": "755D",
            "mac": "CE:08:C9:A5:48:CE",
            "dec": 30045,
            "id": 317
        },
        {
            "area_id": 177,
            "db_id": 1579,
            "area_name": "F3.ZONEA.ZONE1.JSON",
            "hex": "6E9D",
            "mac": "CF:71:5E:67:C9:C7",
            "dec": 28317,
            "id": 318
        },
        {
            "area_id": 177,
            "db_id": 1578,
            "area_name": "F3.ZONEA.ZONE1.JSON",
            "hex": "6EA5",
            "mac": "D2:A2:70:DD:B6:05",
            "dec": 28325,
            "id": 319
        },
        {
            "area_id": 177,
            "db_id": 1378,
            "area_name": "F3.ZONEA.ZONE1.JSON",
            "hex": "74E5",
            "mac": "D8:69:E4:81:D2:21",
            "dec": 29925,
            "id": 320
        },
        {
            "area_id": 177,
            "db_id": 1594,
            "area_name": "F3.ZONEA.ZONE1.JSON",
            "hex": "6E25",
            "mac": "D9:05:78:F7:14:B6",
            "dec": 28197,
            "id": 321
        },
        {
            "area_id": 177,
            "db_id": 1316,
            "area_name": "F3.ZONEA.ZONE1.JSON",
            "hex": "76D5",
            "mac": "DB:4F:08:A7:1D:CF",
            "dec": 30421,
            "id": 322
        },
        {
            "area_id": 177,
            "db_id": 1244,
            "area_name": "F3.ZONEA.ZONE1.JSON",
            "hex": "7915",
            "mac": "EB:D9:6C:7B:13:6A",
            "dec": 30997,
            "id": 323
        },
        {
            "area_id": 177,
            "db_id": 1212,
            "area_name": "F3.ZONEA.ZONE1.JSON",
            "hex": "7A15",
            "mac": "F9:7A:B6:DE:30:C8",
            "dec": 31253,
            "id": 324
        },
        {
            "area_id": 177,
            "db_id": 1595,
            "area_name": "F3.ZONEA.ZONE1.JSON",
            "hex": "6E1D",
            "mac": "FD:F2:08:B1:7D:A9",
            "dec": 28189,
            "id": 325
        },
        {
            "area_id": 178,
            "db_id": 1283,
            "area_name": "F3.ZONEA.ZONE2.JSON",
            "hex": "77DD",
            "mac": "C8:42:5C:7A:D3:30",
            "dec": 30685,
            "id": 326
        },
        {
            "area_id": 178,
            "db_id": 1540,
            "area_name": "F3.ZONEA.ZONE2.JSON",
            "hex": "6FD5",
            "mac": "E8:1F:FC:E8:44:DE",
            "dec": 28629,
            "id": 327
        },
        {
            "area_id": 178,
            "db_id": 1503,
            "area_name": "F3.ZONEA.ZONE2.JSON",
            "hex": "70FD",
            "mac": "FD:97:93:45:27:FD",
            "dec": 28925,
            "id": 328
        },
        {
            "area_id": 179,
            "db_id": 1277,
            "area_name": "F3.ZONEA.ZONE3.JSON",
            "hex": "780D",
            "mac": "D1:28:B3:31:DE:C3",
            "dec": 30733,
            "id": 329
        },
        {
            "area_id": 179,
            "db_id": 1504,
            "area_name": "F3.ZONEA.ZONE3.JSON",
            "hex": "70F5",
            "mac": "F5:85:67:EA:43:79",
            "dec": 28917,
            "id": 330
        },
        {
            "area_id": 179,
            "db_id": 1593,
            "area_name": "F3.ZONEA.ZONE3.JSON",
            "hex": "6E2D",
            "mac": "F9:8E:57:9A:02:C0",
            "dec": 28205,
            "id": 331
        },
        {
            "area_id": 25,
            "db_id": 1355,
            "area_name": "F3.ZONEB.ZONE3.JSON",
            "hex": "759D",
            "mac": "C0:3A:EE:33:05:77",
            "dec": 30109,
            "id": 332
        },
        {
            "area_id": 25,
            "db_id": 1521,
            "area_name": "F3.ZONEB.ZONE3.JSON",
            "hex": "706D",
            "mac": "C2:C8:B1:47:57:A3",
            "dec": 28781,
            "id": 333
        },
        {
            "area_id": 25,
            "db_id": 1388,
            "area_name": "F3.ZONEB.ZONE3.JSON",
            "hex": "7495",
            "mac": "C4:86:9E:D0:5F:D1",
            "dec": 29845,
            "id": 334
        },
        {
            "area_id": 25,
            "db_id": 1401,
            "area_name": "F3.ZONEB.ZONE3.JSON",
            "hex": "742D",
            "mac": "CB:E5:EE:F8:CD:2B",
            "dec": 29741,
            "id": 335
        },
        {
            "area_id": 25,
            "db_id": 1669,
            "area_name": "F3.ZONEB.ZONE3.JSON",
            "hex": "6BCD",
            "mac": "CD:3E:75:2C:1F:8F",
            "dec": 27597,
            "id": 336
        },
        {
            "area_id": 25,
            "db_id": 1307,
            "area_name": "F3.ZONEB.ZONE3.JSON",
            "hex": "771D",
            "mac": "D9:A9:65:E6:A0:37",
            "dec": 30493,
            "id": 337
        },
        {
            "area_id": 25,
            "db_id": 1188,
            "area_name": "F3.ZONEB.ZONE3.JSON",
            "hex": "7AD5",
            "mac": "DA:38:9E:08:9A:0A",
            "dec": 31445,
            "id": 338
        },
        {
            "area_id": 25,
            "db_id": 1269,
            "area_name": "F3.ZONEB.ZONE3.JSON",
            "hex": "784D",
            "mac": "E1:B3:F2:0D:99:6D",
            "dec": 30797,
            "id": 339
        },
        {
            "area_id": 25,
            "db_id": 1484,
            "area_name": "F3.ZONEB.ZONE3.JSON",
            "hex": "7195",
            "mac": "E7:C0:6A:DE:E3:E0",
            "dec": 29077,
            "id": 340
        },
        {
            "area_id": 25,
            "db_id": 1436,
            "area_name": "F3.ZONEB.ZONE3.JSON",
            "hex": "7315",
            "mac": "E8:E1:9C:AD:FC:7D",
            "dec": 29461,
            "id": 341
        },
        {
            "area_id": 25,
            "db_id": 1327,
            "area_name": "F3.ZONEB.ZONE3.JSON",
            "hex": "767D",
            "mac": "E9:06:3C:9F:9D:B7",
            "dec": 30333,
            "id": 342
        },
        {
            "area_id": 25,
            "db_id": 1629,
            "area_name": "F3.ZONEB.ZONE3.JSON",
            "hex": "6D0D",
            "mac": "EA:53:27:43:A6:47",
            "dec": 27917,
            "id": 343
        },
        {
            "area_id": 25,
            "db_id": 1657,
            "area_name": "F3.ZONEB.ZONE3.JSON",
            "hex": "6C2D",
            "mac": "F3:D3:EA:18:A5:42",
            "dec": 27693,
            "id": 344
        },
        {
            "area_id": 25,
            "db_id": 1252,
            "area_name": "F3.ZONEB.ZONE3.JSON",
            "hex": "78D5",
            "mac": "F9:EB:87:BB:F5:DA",
            "dec": 30933,
            "id": 345
        },
        {
            "area_id": 25,
            "db_id": 1394,
            "area_name": "F3.ZONEB.ZONE3.JSON",
            "hex": "7465",
            "mac": "FE:69:F8:E7:8C:02",
            "dec": 29797,
            "id": 346
        },
        {
            "area_id": 26,
            "db_id": 1584,
            "area_name": "F3.ZONEB.ZONE4.JSON",
            "hex": "6E75",
            "mac": "C1:D5:DF:91:BD:53",
            "dec": 28277,
            "id": 347
        },
        {
            "area_id": 26,
            "db_id": 1568,
            "area_name": "F3.ZONEB.ZONE4.JSON",
            "hex": "6EF5",
            "mac": "D5:57:02:4A:B7:B4",
            "dec": 28405,
            "id": 348
        },
        {
            "area_id": 26,
            "db_id": 1597,
            "area_name": "F3.ZONEB.ZONE4.JSON",
            "hex": "6E0D",
            "mac": "D7:6E:D7:23:35:22",
            "dec": 28173,
            "id": 349
        },
        {
            "area_id": 187,
            "db_id": 1385,
            "area_name": "F3.ZONEC.ZONE1.JSON",
            "hex": "74AD",
            "mac": "CA:59:CF:22:11:D4",
            "dec": 29869,
            "id": 350
        },
        {
            "area_id": 187,
            "db_id": 1214,
            "area_name": "F3.ZONEC.ZONE1.JSON",
            "hex": "7A05",
            "mac": "E5:85:70:E9:2F:28",
            "dec": 31237,
            "id": 351
        },
        {
            "area_id": 187,
            "db_id": 1590,
            "area_name": "F3.ZONEC.ZONE1.JSON",
            "hex": "6E45",
            "mac": "F1:A0:44:DF:F7:23",
            "dec": 28229,
            "id": 352
        },
        {
            "area_id": 187,
            "db_id": 1443,
            "area_name": "F3.ZONEC.ZONE1.JSON",
            "hex": "72DD",
            "mac": "F5:77:82:7B:9E:F3",
            "dec": 29405,
            "id": 353
        },
        {
            "area_id": 187,
            "db_id": 1243,
            "area_name": "F3.ZONEC.ZONE1.JSON",
            "hex": "791D",
            "mac": "FA:A6:E7:34:E0:6F",
            "dec": 31005,
            "id": 354
        },
        {
            "area_id": 188,
            "db_id": 1416,
            "area_name": "F3.ZONEC.ZONE2.JSON",
            "hex": "73B5",
            "mac": "C8:9D:91:5D:4C:6F",
            "dec": 29621,
            "id": 355
        },
        {
            "area_id": 188,
            "db_id": 1281,
            "area_name": "F3.ZONEC.ZONE2.JSON",
            "hex": "77ED",
            "mac": "D0:AC:DD:6B:A5:33",
            "dec": 30701,
            "id": 356
        },
        {
            "area_id": 188,
            "db_id": 1198,
            "area_name": "F3.ZONEC.ZONE2.JSON",
            "hex": "7A85",
            "mac": "D2:13:13:50:22:F4",
            "dec": 31365,
            "id": 357
        },
        {
            "area_id": 188,
            "db_id": 1571,
            "area_name": "F3.ZONEC.ZONE2.JSON",
            "hex": "6EDD",
            "mac": "E2:57:8B:D4:87:8C",
            "dec": 28381,
            "id": 358
        },
        {
            "area_id": 188,
            "db_id": 1458,
            "area_name": "F3.ZONEC.ZONE2.JSON",
            "hex": "7265",
            "mac": "E3:09:83:E3:6E:36",
            "dec": 29285,
            "id": 359
        },
        {
            "area_id": 188,
            "db_id": 1280,
            "area_name": "F3.ZONEC.ZONE2.JSON",
            "hex": "77F5",
            "mac": "EF:9E:98:7B:78:02",
            "dec": 30709,
            "id": 360
        }
    ]
}